{
  "service": {
    "service": "aws-homeplus-avatar-uploader",
    "serviceObject": {
      "name": "aws-homeplus-avatar-uploader"
    },
    "provider": {
      "name": "aws",
      "runtime": "nodejs14.x",
      "region": "us-east-1",
      "stage": "dev",
      "environment": {
        "imageUploadBucket": "aws-homeplus-avatar-uploader-bucket-dev",
        "region": "us-east-1"
      },
      "iamRoleStatements": [
        {
          "Effect": "Allow",
          "Action": [
            "s3:*"
          ],
          "Resource": "*"
        }
      ],
      "versionFunctions": true,
      "compiledCloudFormationTemplate": {
        "AWSTemplateFormatVersion": "2010-09-09",
        "Description": "The AWS CloudFormation template for this Serverless application",
        "Resources": {
          "ServerlessDeploymentBucket": {
            "Type": "AWS::S3::Bucket",
            "Properties": {
              "BucketEncryption": {
                "ServerSideEncryptionConfiguration": [
                  {
                    "ServerSideEncryptionByDefault": {
                      "SSEAlgorithm": "AES256"
                    }
                  }
                ]
              }
            }
          },
          "ServerlessDeploymentBucketPolicy": {
            "Type": "AWS::S3::BucketPolicy",
            "Properties": {
              "Bucket": {
                "Ref": "ServerlessDeploymentBucket"
              },
              "PolicyDocument": {
                "Statement": [
                  {
                    "Action": "s3:*",
                    "Effect": "Deny",
                    "Principal": "*",
                    "Resource": [
                      {
                        "Fn::Join": [
                          "",
                          [
                            "arn:",
                            {
                              "Ref": "AWS::Partition"
                            },
                            ":s3:::",
                            {
                              "Ref": "ServerlessDeploymentBucket"
                            },
                            "/*"
                          ]
                        ]
                      },
                      {
                        "Fn::Join": [
                          "",
                          [
                            "arn:",
                            {
                              "Ref": "AWS::Partition"
                            },
                            ":s3:::",
                            {
                              "Ref": "ServerlessDeploymentBucket"
                            }
                          ]
                        ]
                      }
                    ],
                    "Condition": {
                      "Bool": {
                        "aws:SecureTransport": false
                      }
                    }
                  }
                ]
              }
            }
          },
          "ImageUploadLogGroup": {
            "Type": "AWS::Logs::LogGroup",
            "Properties": {
              "LogGroupName": "/aws/lambda/aws-homeplus-avatar-uploader"
            }
          },
          "ImageResizeLogGroup": {
            "Type": "AWS::Logs::LogGroup",
            "Properties": {
              "LogGroupName": "/aws/lambda/aws-homeplus-avatar-uploader-dev-imageResize"
            }
          },
          "IamRoleLambdaExecution": {
            "Type": "AWS::IAM::Role",
            "Properties": {
              "AssumeRolePolicyDocument": {
                "Version": "2012-10-17",
                "Statement": [
                  {
                    "Effect": "Allow",
                    "Principal": {
                      "Service": [
                        "lambda.amazonaws.com"
                      ]
                    },
                    "Action": [
                      "sts:AssumeRole"
                    ]
                  }
                ]
              },
              "Policies": [
                {
                  "PolicyName": {
                    "Fn::Join": [
                      "-",
                      [
                        "aws-homeplus-avatar-uploader",
                        "dev",
                        "lambda"
                      ]
                    ]
                  },
                  "PolicyDocument": {
                    "Version": "2012-10-17",
                    "Statement": [
                      {
                        "Effect": "Allow",
                        "Action": [
                          "logs:CreateLogStream",
                          "logs:CreateLogGroup"
                        ],
                        "Resource": [
                          {
                            "Fn::Sub": "arn:${AWS::Partition}:logs:${AWS::Region}:${AWS::AccountId}:log-group:/aws/lambda/aws-homeplus-avatar-uploader:*"
                          },
                          {
                            "Fn::Sub": "arn:${AWS::Partition}:logs:${AWS::Region}:${AWS::AccountId}:log-group:/aws/lambda/aws-homeplus-avatar-uploader-dev*:*"
                          }
                        ]
                      },
                      {
                        "Effect": "Allow",
                        "Action": [
                          "logs:PutLogEvents"
                        ],
                        "Resource": [
                          {
                            "Fn::Sub": "arn:${AWS::Partition}:logs:${AWS::Region}:${AWS::AccountId}:log-group:/aws/lambda/aws-homeplus-avatar-uploader:*:*"
                          },
                          {
                            "Fn::Sub": "arn:${AWS::Partition}:logs:${AWS::Region}:${AWS::AccountId}:log-group:/aws/lambda/aws-homeplus-avatar-uploader-dev*:*:*"
                          }
                        ]
                      },
                      {
                        "$ref": "$[\"service\"][\"provider\"][\"iamRoleStatements\"][0]"
                      }
                    ]
                  }
                }
              ],
              "Path": "/",
              "RoleName": {
                "Fn::Join": [
                  "-",
                  [
                    "aws-homeplus-avatar-uploader",
                    "dev",
                    {
                      "Ref": "AWS::Region"
                    },
                    "lambdaRole"
                  ]
                ]
              }
            }
          },
          "ImageUploadLambdaFunction": {
            "Type": "AWS::Lambda::Function",
            "Properties": {
              "Code": {
                "S3Bucket": {
                  "Ref": "ServerlessDeploymentBucket"
                },
                "S3Key": "serverless/aws-homeplus-avatar-uploader/dev/1648297872317-2022-03-26T12:31:12.317Z/imageUpload.zip"
              },
              "Handler": "src/imageUpload.handler",
              "Runtime": "nodejs14.x",
              "FunctionName": "aws-homeplus-avatar-uploader",
              "MemorySize": 512,
              "Timeout": 60,
              "Description": "A lambda handler that uploads a image to S3 bucket based on an API Gateway triger",
              "Environment": {
                "Variables": {
                  "imageUploadBucket": "aws-homeplus-avatar-uploader-bucket-dev",
                  "region": "us-east-1"
                }
              },
              "Role": {
                "Fn::GetAtt": [
                  "IamRoleLambdaExecution",
                  "Arn"
                ]
              }
            },
            "DependsOn": [
              "ImageUploadLogGroup"
            ]
          },
          "ImageResizeLambdaFunction": {
            "Type": "AWS::Lambda::Function",
            "Properties": {
              "Code": {
                "S3Bucket": {
                  "Ref": "ServerlessDeploymentBucket"
                },
                "S3Key": "serverless/aws-homeplus-avatar-uploader/dev/1648297872317-2022-03-26T12:31:12.317Z/imageResize.zip"
              },
              "Handler": "src/imageResize.handler",
              "Runtime": "nodejs14.x",
              "FunctionName": "aws-homeplus-avatar-uploader-dev-imageResize",
              "MemorySize": 1024,
              "Timeout": 6,
              "Environment": {
                "Variables": {
                  "imageUploadBucket": "aws-homeplus-avatar-uploader-bucket-dev",
                  "region": "us-east-1"
                }
              },
              "Role": {
                "Fn::GetAtt": [
                  "IamRoleLambdaExecution",
                  "Arn"
                ]
              }
            },
            "DependsOn": [
              "ImageResizeLogGroup"
            ]
          },
          "ImageUploadLambdaVersionM4FHLbeTNxmP7mM9YqlGu66Wl0zE4IFaaiaTGpZy3o": {
            "Type": "AWS::Lambda::Version",
            "DeletionPolicy": "Retain",
            "Properties": {
              "FunctionName": {
                "Ref": "ImageUploadLambdaFunction"
              },
              "CodeSha256": "G+BlDi0bSRN4IdUCVCPwdY8Cr6cbi6+nYqfWqh0bjXo=",
              "Description": "A lambda handler that uploads a image to S3 bucket based on an API Gateway triger"
            }
          },
          "ImageResizeLambdaVersion1zCpwEJAW5Qsgg1SKcVMrv1Rf7cX0WHSt2MmXCMsug": {
            "Type": "AWS::Lambda::Version",
            "DeletionPolicy": "Retain",
            "Properties": {
              "FunctionName": {
                "Ref": "ImageResizeLambdaFunction"
              },
              "CodeSha256": "G+BlDi0bSRN4IdUCVCPwdY8Cr6cbi6+nYqfWqh0bjXo="
            }
          },
          "ApiGatewayRestApi": {
            "Type": "AWS::ApiGateway::RestApi",
            "Properties": {
              "Name": "dev-aws-homeplus-avatar-uploader",
              "EndpointConfiguration": {
                "Types": [
                  "EDGE"
                ]
              },
              "Policy": ""
            }
          },
          "ApiGatewayResourceImageDashupload": {
            "Type": "AWS::ApiGateway::Resource",
            "Properties": {
              "ParentId": {
                "Fn::GetAtt": [
                  "ApiGatewayRestApi",
                  "RootResourceId"
                ]
              },
              "PathPart": "image-upload",
              "RestApiId": {
                "Ref": "ApiGatewayRestApi"
              }
            }
          },
          "ApiGatewayMethodImageDashuploadOptions": {
            "Type": "AWS::ApiGateway::Method",
            "Properties": {
              "AuthorizationType": "NONE",
              "HttpMethod": "OPTIONS",
              "MethodResponses": [
                {
                  "StatusCode": "200",
                  "ResponseParameters": {
                    "method.response.header.Access-Control-Allow-Origin": true,
                    "method.response.header.Access-Control-Allow-Headers": true,
                    "method.response.header.Access-Control-Allow-Methods": true
                  },
                  "ResponseModels": {}
                }
              ],
              "RequestParameters": {},
              "Integration": {
                "Type": "MOCK",
                "RequestTemplates": {
                  "application/json": "{statusCode:200}"
                },
                "ContentHandling": "CONVERT_TO_TEXT",
                "IntegrationResponses": [
                  {
                    "StatusCode": "200",
                    "ResponseParameters": {
                      "method.response.header.Access-Control-Allow-Origin": "'*'",
                      "method.response.header.Access-Control-Allow-Headers": "'Content-Type,X-Amz-Date,Authorization,X-Api-Key,X-Amz-Security-Token,X-Amz-User-Agent'",
                      "method.response.header.Access-Control-Allow-Methods": "'OPTIONS,POST'"
                    },
                    "ResponseTemplates": {
                      "application/json": ""
                    }
                  }
                ]
              },
              "ResourceId": {
                "Ref": "ApiGatewayResourceImageDashupload"
              },
              "RestApiId": {
                "Ref": "ApiGatewayRestApi"
              }
            }
          },
          "ApiGatewayMethodImageDashuploadPost": {
            "Type": "AWS::ApiGateway::Method",
            "Properties": {
              "HttpMethod": "POST",
              "RequestParameters": {},
              "ResourceId": {
                "Ref": "ApiGatewayResourceImageDashupload"
              },
              "RestApiId": {
                "Ref": "ApiGatewayRestApi"
              },
              "ApiKeyRequired": false,
              "AuthorizationType": "NONE",
              "Integration": {
                "IntegrationHttpMethod": "POST",
                "Type": "AWS_PROXY",
                "Uri": {
                  "Fn::Join": [
                    "",
                    [
                      "arn:",
                      {
                        "Ref": "AWS::Partition"
                      },
                      ":apigateway:",
                      {
                        "Ref": "AWS::Region"
                      },
                      ":lambda:path/2015-03-31/functions/",
                      {
                        "Fn::GetAtt": [
                          "ImageUploadLambdaFunction",
                          "Arn"
                        ]
                      },
                      "/invocations"
                    ]
                  ]
                }
              },
              "MethodResponses": []
            },
            "DependsOn": [
              "ImageUploadLambdaPermissionApiGateway"
            ]
          },
          "ApiGatewayDeployment1648297860519": {
            "Type": "AWS::ApiGateway::Deployment",
            "Properties": {
              "RestApiId": {
                "Ref": "ApiGatewayRestApi"
              },
              "StageName": "dev"
            },
            "DependsOn": [
              "ApiGatewayMethodImageDashuploadOptions",
              "ApiGatewayMethodImageDashuploadPost"
            ]
          },
          "ImageUploadLambdaPermissionApiGateway": {
            "Type": "AWS::Lambda::Permission",
            "Properties": {
              "FunctionName": {
                "Fn::GetAtt": [
                  "ImageUploadLambdaFunction",
                  "Arn"
                ]
              },
              "Action": "lambda:InvokeFunction",
              "Principal": "apigateway.amazonaws.com",
              "SourceArn": {
                "Fn::Join": [
                  "",
                  [
                    "arn:",
                    {
                      "Ref": "AWS::Partition"
                    },
                    ":execute-api:",
                    {
                      "Ref": "AWS::Region"
                    },
                    ":",
                    {
                      "Ref": "AWS::AccountId"
                    },
                    ":",
                    {
                      "Ref": "ApiGatewayRestApi"
                    },
                    "/*/*"
                  ]
                ]
              }
            }
          },
          "ImageUploadBucket": {
            "Type": "AWS::S3::Bucket",
            "Properties": {
              "BucketName": "aws-homeplus-avatar-uploader-bucket-dev",
              "AccessControl": "PublicRead"
            }
          }
        },
        "Outputs": {
          "ServerlessDeploymentBucketName": {
            "Value": {
              "Ref": "ServerlessDeploymentBucket"
            },
            "Export": {
              "Name": "sls-aws-homeplus-avatar-uploader-dev-ServerlessDeploymentBucketName"
            }
          },
          "ImageUploadLambdaFunctionQualifiedArn": {
            "Description": "Current Lambda function version",
            "Value": {
              "Ref": "ImageUploadLambdaVersionM4FHLbeTNxmP7mM9YqlGu66Wl0zE4IFaaiaTGpZy3o"
            },
            "Export": {
              "Name": "sls-aws-homeplus-avatar-uploader-dev-ImageUploadLambdaFunctionQualifiedArn"
            }
          },
          "ImageResizeLambdaFunctionQualifiedArn": {
            "Description": "Current Lambda function version",
            "Value": {
              "Ref": "ImageResizeLambdaVersion1zCpwEJAW5Qsgg1SKcVMrv1Rf7cX0WHSt2MmXCMsug"
            },
            "Export": {
              "Name": "sls-aws-homeplus-avatar-uploader-dev-ImageResizeLambdaFunctionQualifiedArn"
            }
          },
          "ServiceEndpoint": {
            "Description": "URL of the service endpoint",
            "Value": {
              "Fn::Join": [
                "",
                [
                  "https://",
                  {
                    "Ref": "ApiGatewayRestApi"
                  },
                  ".execute-api.",
                  {
                    "Ref": "AWS::Region"
                  },
                  ".",
                  {
                    "Ref": "AWS::URLSuffix"
                  },
                  "/dev"
                ]
              ]
            },
            "Export": {
              "Name": "sls-aws-homeplus-avatar-uploader-dev-ServiceEndpoint"
            }
          }
        }
      },
      "coreCloudFormationTemplate": {
        "AWSTemplateFormatVersion": "2010-09-09",
        "Description": "The AWS CloudFormation template for this Serverless application",
        "Resources": {
          "ServerlessDeploymentBucket": {
            "Type": "AWS::S3::Bucket",
            "Properties": {
              "BucketEncryption": {
                "ServerSideEncryptionConfiguration": [
                  {
                    "ServerSideEncryptionByDefault": {
                      "SSEAlgorithm": "AES256"
                    }
                  }
                ]
              }
            }
          },
          "ServerlessDeploymentBucketPolicy": {
            "Type": "AWS::S3::BucketPolicy",
            "Properties": {
              "Bucket": {
                "Ref": "ServerlessDeploymentBucket"
              },
              "PolicyDocument": {
                "Statement": [
                  {
                    "Action": "s3:*",
                    "Effect": "Deny",
                    "Principal": "*",
                    "Resource": [
                      {
                        "Fn::Join": [
                          "",
                          [
                            "arn:",
                            {
                              "Ref": "AWS::Partition"
                            },
                            ":s3:::",
                            {
                              "Ref": "ServerlessDeploymentBucket"
                            },
                            "/*"
                          ]
                        ]
                      },
                      {
                        "Fn::Join": [
                          "",
                          [
                            "arn:",
                            {
                              "Ref": "AWS::Partition"
                            },
                            ":s3:::",
                            {
                              "Ref": "ServerlessDeploymentBucket"
                            }
                          ]
                        ]
                      }
                    ],
                    "Condition": {
                      "Bool": {
                        "aws:SecureTransport": false
                      }
                    }
                  }
                ]
              }
            }
          }
        },
        "Outputs": {
          "ServerlessDeploymentBucketName": {
            "Value": {
              "Ref": "ServerlessDeploymentBucket"
            }
          }
        }
      },
      "vpc": {}
    },
    "custom": {
      "imageUploadBucket": "aws-homeplus-avatar-uploader-bucket-dev"
    },
    "pluginsData": {},
    "functions": {
      "imageUpload": {
        "handler": "src/imageUpload.handler",
        "name": "aws-homeplus-avatar-uploader",
        "description": "A lambda handler that uploads a image to S3 bucket based on an API Gateway triger",
        "timeout": 60,
        "memorySize": 512,
        "events": [
          {
            "http": {
              "path": "image-upload",
              "method": "post",
              "cors": {
                "origin": "*",
                "methods": [
                  "OPTIONS",
                  "POST"
                ],
                "headers": [
                  "Content-Type",
                  "X-Amz-Date",
                  "Authorization",
                  "X-Api-Key",
                  "X-Amz-Security-Token",
                  "X-Amz-User-Agent"
                ],
                "allowCredentials": false
              },
              "integration": "AWS_PROXY"
            }
          }
        ],
        "package": {
          "artifact": "/Users/yu-chenhsiao/Documents/lifeserver/homeplus/user-avatar-upload/.serverless/imageUpload.zip"
        },
        "memory": 512,
        "runtime": "nodejs14.x",
        "vpc": {},
        "versionLogicalId": "ImageUploadLambdaVersionM4FHLbeTNxmP7mM9YqlGu66Wl0zE4IFaaiaTGpZy3o"
      },
      "imageResize": {
        "handler": "src/imageResize.handler",
        "events": [
          {
            "bucket": "aws-homeplus-avatar-uploader-bucket-dev",
            "event": "s3:ObjectCreated:*",
            "rules": [
              {
                "prefix": "uploads/"
              }
            ],
            "existing": true,
            "Aws.s3": null
          }
        ],
        "name": "aws-homeplus-avatar-uploader-dev-imageResize",
        "package": {
          "artifact": "/Users/yu-chenhsiao/Documents/lifeserver/homeplus/user-avatar-upload/.serverless/imageResize.zip"
        },
        "memory": 1024,
        "timeout": 6,
        "runtime": "nodejs14.x",
        "vpc": {},
        "versionLogicalId": "ImageResizeLambdaVersion1zCpwEJAW5Qsgg1SKcVMrv1Rf7cX0WHSt2MmXCMsug"
      }
    },
    "resources": {
      "Resources": {
        "ImageUploadBucket": {
          "Type": "AWS::S3::Bucket",
          "Properties": {
            "BucketName": "aws-homeplus-avatar-uploader-bucket-dev",
            "AccessControl": "PublicRead"
          }
        }
      },
      "Outputs": {}
    },
    "configValidationMode": "warn",
    "serviceFilename": "serverless.yml",
    "initialServerlessConfig": {
      "service": "aws-homeplus-avatar-uploader",
      "provider": {
        "$ref": "$[\"service\"][\"provider\"]"
      },
      "package": {
        "individually": true,
        "artifactsS3KeyDirname": "serverless/aws-homeplus-avatar-uploader/dev/code-artifacts",
        "artifactDirectoryName": "serverless/aws-homeplus-avatar-uploader/dev/1648297872317-2022-03-26T12:31:12.317Z"
      },
      "custom": {
        "$ref": "$[\"service\"][\"custom\"]"
      },
      "functions": {
        "$ref": "$[\"service\"][\"functions\"]"
      },
      "resources": {
        "$ref": "$[\"service\"][\"resources\"]"
      }
    },
    "layers": {},
    "isDashboardMonitoringPreconfigured": false
  },
  "package": {
    "individually": true,
    "artifactDirectoryName": "serverless/aws-homeplus-avatar-uploader/dev/1648297872317-2022-03-26T12:31:12.317Z",
    "artifact": ""
  }
}